<?xml version="1.0" encoding="utf-8"?>
<!-- Generator: Adobe Illustrator 22.1.0, SVG Export Plug-In . SVG Version: 6.00 Build 0)  -->
<svg version="1.1" id="Layer_1" xmlns="http://www.w3.org/2000/svg" xmlns:xlink="http://www.w3.org/1999/xlink" x="0px" y="0px"
	 viewBox="0 0 263.1 469.4" style="enable-background:new 0 0 263.1 469.4;" xml:space="preserve">
<style type="text/css">
	.st0{fill:none;stroke:#CCCCCC;stroke-miterlimit:10;}
	.st1{fill:none;stroke:#FFCB00;stroke-miterlimit:10;}
	.st2{fill:#FFCB00;}
	.st3{fill:#CCCCCC;}
	.st4{fill:none;stroke:#01172D;stroke-width:2;}
</style>
<path class="st0" d="M153.6,411C112.5,446.8,58.8,468.5,0,468.5"/>
<path class="st0" d="M234,234.5c0,70.4-31.1,133.6-80.4,176.5"/>
<path class="st1" d="M154.8,59c48.6,42.9,79.2,105.6,79.2,175.5"/>
<path class="st1" d="M0,0.5c59.3,0,113.5,22.1,154.8,58.5"/>
<ellipse class="st2" cx="154.5" cy="59" rx="16.5" ry="16.9"/>
<ellipse class="st3" cx="153.5" cy="411" rx="16.5" ry="16.9"/>
<g id="Group_1612" transform="translate(-371.701 -1256.73)">
	<ellipse id="Ellipse_2" class="st2" cx="604.7" cy="1491.4" rx="28" ry="28"/>
	<g id="Group_309" transform="translate(388.964 1275.507)">
		<path id="Path_3" class="st4" d="M226.4,216.1v12.1h-11.9"/>
		<path id="Path_4" class="st4" d="M204.8,218.5l0.6-12l11.9,0.6"/>
	</g>
</g>
</svg>
