[
  {
    "state_en": "Eastern Province",
    "state_ar": "المنطقة الشرقية",
    "country": "SAU",
    "code": "EAS",
    "city_en": "Dammam",
    "city_code": "DAMMAM",
    "city_ar": "الدمام"
  },
  {
    "state_en": "Makkah Province",
    "state_ar": "مكة المكرمة",
    "country": "SAU",
    "code": "MAK",
    "city_en": "Jeddah",
    "city_code": "JEDDAH",
    "city_ar": "جدة"
  },
  {
    "state_en": "Riyadh Province",
    "state_ar": "الرياض",
    "country": "SAU",
    "code": "RIY",
    "city_en": "Riyadh",
    "city_code": "RIYADH",
    "city_ar": "الرياض"
  },
  {
    "state_en": "Bahah Province",
    "state_ar": "الباحة",
    "country": "SAU",
    "code": "BAH",
    "city_en": "Al Baha",
    "city_code": "AL-BAHA",
    "city_ar": "الباحة"
  },
  {
    "state_en": "Al Qassim Province",
    "state_ar": "القصيم",
    "country": "SAU",
    "code": "ALQ",
    "city_en": "Buraydah",
    "city_code": "BURAYDAH",
    "city_ar": "بريدة"
  },
  {
    "state_en": "Gizan Province",
    "state_ar": "جازان",
    "country": "SAU",
    "code": "GIZ",
    "city_en": "Gizan",
    "city_code": "GIZAN",
    "city_ar": "جيزان"
  },
  {
    "state_en": "Aseer Province",
    "state_ar": "عسير",
    "country": "SAU",
    "code": "ASE",
    "city_en": "Abha",
    "city_code": "ABHA",
    "city_ar": "أبها"
  },
  {
    "state_en": "Eastern Province",
    "state_ar": "المنطقة الشرقية",
    "country": "SAU",
    "code": "EAS",
    "city_en": "Hafar Al Batin",
    "city_code": "HAFAR-AL-BATIN",
    "city_ar": "حفر الباطن"
  },
  {
    "state_en": "Hail Province",
    "state_ar": "حائل",
    "country": "SAU",
    "code": "HAI",
    "city_en": "Hail",
    "city_code": "HAIL",
    "city_ar": "حايل"
  },
  {
    "state_en": "Eastern Province",
    "state_ar": "المنطقة الشرقية",
    "country": "SAU",
    "code": "EAS",
    "city_en": "Hofuf",
    "city_code": "HOFUF",
    "city_ar": "الهفوف"
  },
  {
    "state_en": "Eastern Province",
    "state_ar": "المنطقة الشرقية",
    "country": "SAU",
    "code": "EAS",
    "city_en": "Jubail",
    "city_code": "JUBAIL",
    "city_ar": "الجبيل"
  },
  {
    "state_en": "Makkah Province",
    "state_ar": "مكة المكرمة",
    "country": "SAU",
    "code": "MAK",
    "city_en": "Makkah",
    "city_code": "MAKKAH",
    "city_ar": "مكه"
  },
  {
    "state_en": "Madinah Province",
    "state_ar": "المدينة المنورة",
    "country": "SAU",
    "code": "MAD",
    "city_en": "Medina",
    "city_code": "MEDINA",
    "city_ar": "المدينة المنورة"
  },
  {
    "state_en": "Najran Province",
    "state_ar": "نجران",
    "country": "SAU",
    "code": "NAJ",
    "city_en": "Najran",
    "city_code": "NAJRAN",
    "city_ar": "نجران"
  },
  {
    "state_en": "Tabuk Province",
    "state_ar": "تبوك",
    "country": "SAU",
    "code": "TAB",
    "city_en": "Tabuk",
    "city_code": "TABUK",
    "city_ar": "تبوك"
  },
  {
    "state_en": "Makkah Province",
    "state_ar": "مكة المكرمة",
    "country": "SAU",
    "code": "MAK",
    "city_en": "Taif",
    "city_code": "TAIF",
    "city_ar": "الطائف"
  },
  {
    "state_en": "Madinah Province",
    "state_ar": "المدينة المنورة",
    "country": "SAU",
    "code": "MAD",
    "city_en": "Yanbu",
    "city_code": "YANBU",
    "city_ar": "ينبع"
  },
  {
    "state_en": "Eastern Province",
    "state_ar": "المنطقة الشرقية",
    "country": "SAU",
    "code": "EAS",
    "city_en": "Abqaiq",
    "city_code": "ABQAIQ",
    "city_ar": "بقيق"
  },
  {
    "state_en": "Gizan Province",
    "state_ar": "جازان",
    "country": "SAU",
    "code": "GIZ",
    "city_en": "Abu Arish",
    "city_code": "ABU-ARISH",
    "city_ar": "ابو عريش"
  },
  {
    "state_en": "Al Qassim Province",
    "state_ar": "القصيم",
    "country": "SAU",
    "code": "ALQ",
    "city_en": "Ad Dalfaah",
    "city_code": "AD-DALFAAH",
    "city_ar": "الضلفعه"
  },
  {
    "state_en": "Dubai",
    "state_ar": "دبي",
    "country": "ARE",
    "code": "DUB",
    "city_en": "Dubai",
    "city_code": "DUBAI",
    "city_ar": "دبي"
  },
  {
    "state_en": "Riyadh Province",
    "state_ar": "الرياض",
    "country": "SAU",
    "code": "RIY",
    "city_en": "Ad Diriyah",
    "city_code": "AD-DIRIYAH",
    "city_ar": "الدرعية"
  },
  {
    "state_en": "Eastern Province",
    "state_ar": "المنطقة الشرقية",
    "country": "SAU",
    "code": "EAS",
    "city_en": "Ain Dar",
    "city_code": "AIN-DAR",
    "city_ar": "عين دار الجديدة"
  },
  {
    "state_en": "Riyadh Province",
    "state_ar": "الرياض",
    "country": "SAU",
    "code": "RIY",
    "city_en": "Al Amaaria",
    "city_code": "AL-AMAARIA",
    "city_ar": "العمارية"
  },
  {
    "state_en": "Bahah Province",
    "state_ar": "الباحة",
    "country": "SAU",
    "code": "BAH",
    "city_en": "Al Aqiq",
    "city_code": "AL-AQIQ",
    "city_ar": "العقيق"
  },
  {
    "state_en": "Bahah Province",
    "state_ar": "الباحة",
    "country": "SAU",
    "code": "BAH",
    "city_en": "Al Atawilah",
    "city_code": "AL-ATAWILAH",
    "city_ar": "العطاولة"
  },
  {
    "state_en": "Al Qassim Province",
    "state_ar": "القصيم",
    "country": "SAU",
    "code": "ALQ",
    "city_en": "Al Badayea",
    "city_code": "AL-BADAYEA",
    "city_ar": "البدايع"
  },
  {
    "state_en": "Al Qassim Province",
    "state_ar": "القصيم",
    "country": "SAU",
    "code": "ALQ",
    "city_en": "Al Bukayriyah",
    "city_code": "AL-BUKAYRIYAH",
    "city_ar": "البكيرية"
  },
  {
    "state_en": "Eastern Province",
    "state_ar": "المنطقة الشرقية",
    "country": "SAU",
    "code": "EAS",
    "city_en": "Al Dughaimiyah",
    "city_code": "AL-DUGHAIMIYAH",
    "city_ar": "الدغيمية"
  },
  {
    "state_en": "Makkah Province",
    "state_ar": "مكة المكرمة",
    "country": "SAU",
    "code": "MAK",
    "city_en": "Al Hada",
    "city_code": "AL-HADA",
    "city_ar": "الهدا"
  },
  {
    "state_en": "Al Qassim Province",
    "state_ar": "القصيم",
    "country": "SAU",
    "code": "ALQ",
    "city_en": "Al Dulaymiyah",
    "city_code": "AL-DULAYMIYAH",
    "city_ar": "الدليمية"
  },
  {
    "state_en": "Abu Dhabi",
    "state_ar": "أبو ظبي",
    "country": "ARE",
    "code": "ABU",
    "city_en": "Abu Dhabi",
    "city_code": "ABU-DHABI",
    "city_ar": "أبو ظبي"
  },
  {
    "state_en": "Riyadh Province",
    "state_ar": "الرياض",
    "country": "SAU",
    "code": "RIY",
    "city_en": "Al Jubaylah",
    "city_code": "AL-JUBAYLAH",
    "city_ar": "الجبيلة"
  },
  {
    "state_en": "Makkah Province",
    "state_ar": "مكة المكرمة",
    "country": "SAU",
    "code": "MAK",
    "city_en": "Al Jumum",
    "city_code": "AL-JUMUM",
    "city_ar": "الجموم"
  },
  {
    "state_en": "Riyadh Province",
    "state_ar": "الرياض",
    "country": "SAU",
    "code": "RIY",
    "city_en": "Al Kharj",
    "city_code": "AL-KHARJ",
    "city_ar": "الخرج"
  },
  {
    "state_en": "Eastern Province",
    "state_ar": "المنطقة الشرقية",
    "country": "SAU",
    "code": "EAS",
    "city_en": "Al Khobar",
    "city_code": "AL-KHOBAR",
    "city_ar": "الخبر"
  },
  {
    "state_en": "Makkah Province",
    "state_ar": "مكة المكرمة",
    "country": "SAU",
    "code": "MAK",
    "city_en": "Al Khurma",
    "city_code": "AL-KHURMA",
    "city_ar": "الخرمة"
  },
  {
    "state_en": "Makkah Province",
    "state_ar": "مكة المكرمة",
    "country": "SAU",
    "code": "MAK",
    "city_en": "Al Lith",
    "city_code": "AL-LITH",
    "city_ar": "الليث"
  },
  {
    "state_en": "Riyadh Province",
    "state_ar": "الرياض",
    "country": "SAU",
    "code": "RIY",
    "city_en": "Al Majmaah",
    "city_code": "AL-MAJMAAH",
    "city_ar": "المجمعة"
  },
  {
    "state_en": "Al Qassim Province",
    "state_ar": "القصيم",
    "country": "SAU",
    "code": "ALQ",
    "city_en": "Al Mithnab",
    "city_code": "AL-MITHNAB",
    "city_ar": "المذنب"
  },
  {
    "state_en": "Eastern Province",
    "state_ar": "المنطقة الشرقية",
    "country": "SAU",
    "code": "EAS",
    "city_en": "Al Mubarraz",
    "city_code": "AL-MUBARRAZ",
    "city_ar": "المبرز"
  },
  {
    "state_en": "Riyadh Province",
    "state_ar": "الرياض",
    "country": "SAU",
    "code": "RIY",
    "city_en": "Al Muzahimiyah",
    "city_code": "AL-MUZAHIMIYAH",
    "city_ar": "المزاحمية"
  },
  {
    "state_en": "Aseer Province",
    "state_ar": "عسير",
    "country": "SAU",
    "code": "ASE",
    "city_en": "Al Namas",
    "city_code": "AL-NAMAS",
    "city_ar": "النماص"
  },
  {
    "state_en": "Aseer Province",
    "state_ar": "عسير",
    "country": "SAU",
    "code": "ASE",
    "city_en": "Al Ous",
    "city_code": "AL-OUS",
    "city_ar": "العوص"
  },
  {
    "state_en": "Eastern Province",
    "state_ar": "المنطقة الشرقية",
    "country": "SAU",
    "code": "EAS",
    "city_en": "Al Oyun",
    "city_code": "AL-OYUN",
    "city_ar": "العيون"
  },
  {
    "state_en": "Al Qassim Province",
    "state_ar": "القصيم",
    "country": "SAU",
    "code": "ALQ",
    "city_en": "Al Qaraa",
    "city_code": "AL-QARAA",
    "city_ar": "القرعاء"
  },
  {
    "state_en": "Eastern Province",
    "state_ar": "المنطقة الشرقية",
    "country": "SAU",
    "code": "EAS",
    "city_en": "Al Qarah",
    "city_code": "AL-QARAH",
    "city_ar": "القارة"
  },
  {
    "state_en": "Eastern Province",
    "state_ar": "المنطقة الشرقية",
    "country": "SAU",
    "code": "EAS",
    "city_en": "Al Qatif",
    "city_code": "AL-QATIF",
    "city_ar": "القطيف"
  },
  {
    "state_en": "Al Qassim Province",
    "state_ar": "القصيم",
    "country": "SAU",
    "code": "ALQ",
    "city_en": "Al Tarafayh Al Sharqiyah",
    "city_code": "AL-TARAFAYH-AL-SHARQIYAH",
    "city_ar": "الطرفية الشرقية"
  },
  {
    "state_en": "Madinah Province",
    "state_ar": "المدينة المنورة",
    "country": "SAU",
    "code": "MAD",
    "city_en": "Al Ula",
    "city_code": "AL-ULA",
    "city_ar": "العلا"
  },
  {
    "state_en": "Bahah Province",
    "state_ar": "الباحة",
    "country": "SAU",
    "code": "BAH",
    "city_en": "Albarek",
    "city_code": "ALBAREK",
    "city_ar": "البارك"
  },
  {
    "state_en": "Bahah Province",
    "state_ar": "الباحة",
    "country": "SAU",
    "code": "BAH",
    "city_en": "Alhumaid",
    "city_code": "ALHUMAID",
    "city_ar": "الحميد"
  },
  {
    "state_en": "Bahah Province",
    "state_ar": "الباحة",
    "country": "SAU",
    "code": "BAH",
    "city_en": "Allaghamees",
    "city_code": "ALLAGHAMEES",
    "city_ar": "اللغاميس"
  },
  {
    "state_en": "Bahah Province",
    "state_ar": "الباحة",
    "country": "SAU",
    "code": "BAH",
    "city_en": "Almandaq",
    "city_code": "ALMANDAQ",
    "city_ar": "المندق"
  },
  {
    "state_en": "Al Qassim Province",
    "state_ar": "القصيم",
    "country": "SAU",
    "code": "ALQ",
    "city_en": "An Nabhaniyah",
    "city_code": "AN-NABHANIYAH",
    "city_ar": "النبهانية"
  },
  {
    "state_en": "Makkah Province",
    "state_ar": "مكة المكرمة",
    "country": "SAU",
    "code": "MAK",
    "city_en": "An Nawwariyyah",
    "city_code": "AN-NAWWARIYYAH",
    "city_ar": "النوارية"
  },
  {
    "state_en": "Eastern Province",
    "state_ar": "المنطقة الشرقية",
    "country": "SAU",
    "code": "EAS",
    "city_en": "Anak",
    "city_code": "ANAK",
    "city_ar": "عنك"
  },
  {
    "state_en": "Al Qassim Province",
    "state_ar": "القصيم",
    "country": "SAU",
    "code": "ALQ",
    "city_en": "Ar Rass",
    "city_code": "AR-RASS",
    "city_ar": "الرس"
  },
  {
    "state_en": "Eastern Province",
    "state_ar": "المنطقة الشرقية",
    "country": "SAU",
    "code": "EAS",
    "city_en": "As Saffaniyah",
    "city_code": "AS-SAFFANIYAH",
    "city_ar": "السفانية"
  },
  {
    "state_en": "Makkah Province",
    "state_ar": "مكة المكرمة",
    "country": "SAU",
    "code": "MAK",
    "city_en": "As Sail Al Kabeer",
    "city_code": "AS-SAIL-AL-KABEER",
    "city_ar": "السيل الكبير"
  },
  {
    "state_en": "Eastern Province",
    "state_ar": "المنطقة الشرقية",
    "country": "SAU",
    "code": "EAS",
    "city_en": "As Sarrar",
    "city_code": "AS-SARRAR",
    "city_ar": "الصرّار"
  },
  {
    "state_en": "Makkah Province",
    "state_ar": "مكة المكرمة",
    "country": "SAU",
    "code": "MAK",
    "city_en": "As Sayl as Saghir",
    "city_code": "AS-SAYL-AS-SAGHIR",
    "city_ar": "السيل الصغير"
  },
  {
    "state_en": "Makkah Province",
    "state_ar": "مكة المكرمة",
    "country": "SAU",
    "code": "MAK",
    "city_en": "Asfan",
    "city_code": "ASFAN",
    "city_ar": "عسفان"
  },
  {
    "state_en": "Makkah Province",
    "state_ar": "مكة المكرمة",
    "country": "SAU",
    "code": "MAK",
    "city_en": "Ash Shafa",
    "city_code": "ASH-SHAFA",
    "city_ar": "الشفا"
  },
  {
    "state_en": "Al Qassim Province",
    "state_ar": "القصيم",
    "country": "SAU",
    "code": "ALQ",
    "city_en": "Ash Shimasiyah",
    "city_code": "ASH-SHIMASIYAH",
    "city_ar": "الشماسية"
  },
  {
    "state_en": "Bahah Province",
    "state_ar": "الباحة",
    "country": "SAU",
    "code": "BAH",
    "city_en": "Atawleh",
    "city_code": "ATAWLEH",
    "city_ar": "الأطاوله"
  },
  {
    "state_en": "Bahah Province",
    "state_ar": "الباحة",
    "country": "SAU",
    "code": "BAH",
    "city_en": "Awirah",
    "city_code": "AWIRAH",
    "city_ar": "عويره"
  },
  {
    "state_en": "Bahah Province",
    "state_ar": "الباحة",
    "country": "SAU",
    "code": "BAH",
    "city_en": "Az Zafir",
    "city_code": "AZ-ZAFIR",
    "city_ar": "الزفير"
  },
  {
    "state_en": "Riyadh Province",
    "state_ar": "الرياض",
    "country": "SAU",
    "code": "RIY",
    "city_en": "Az Zulfi",
    "city_code": "AZ-ZULFI",
    "city_ar": "الزلفي"
  },
  {
    "state_en": "Madinah Province",
    "state_ar": "المدينة المنورة",
    "country": "SAU",
    "code": "MAD",
    "city_en": "Badr",
    "city_code": "BADR",
    "city_ar": "بدر"
  },
  {
    "state_en": "Makkah Province",
    "state_ar": "مكة المكرمة",
    "country": "SAU",
    "code": "MAK",
    "city_en": "Bahrah",
    "city_code": "BAHRAH",
    "city_ar": "بحرة"
  },
  {
    "state_en": "Gizan Province",
    "state_ar": "جازان",
    "country": "SAU",
    "code": "GIZ",
    "city_en": "Baish",
    "city_code": "BAISH",
    "city_ar": "بيش"
  },
  {
    "state_en": "Bahah Province",
    "state_ar": "الباحة",
    "country": "SAU",
    "code": "BAH",
    "city_en": "Baljurashi",
    "city_code": "BALJURASHI",
    "city_ar": "بلجرشي"
  },
  {
    "state_en": "Bahah Province",
    "state_ar": "الباحة",
    "country": "SAU",
    "code": "BAH",
    "city_en": "Bani Hasan",
    "city_code": "BANI-HASAN",
    "city_ar": "بني حسن"
  },
  {
    "state_en": "Bahah Province",
    "state_ar": "الباحة",
    "country": "SAU",
    "code": "BAH",
    "city_en": "Bani Horairah",
    "city_code": "BANI-HORAIRAH",
    "city_ar": "بني حريرة"
  },
  {
    "state_en": "Bahah Province",
    "state_ar": "الباحة",
    "country": "SAU",
    "code": "BAH",
    "city_en": "Bani Kabir",
    "city_code": "BANI-KABIR",
    "city_ar": "بني كبير"
  },
  {
    "state_en": "Bahah Province",
    "state_ar": "الباحة",
    "country": "SAU",
    "code": "BAH",
    "city_en": "Bani Mouhamad",
    "city_code": "BANI-MOUHAMAD",
    "city_ar": "بني محمد"
  },
  {
    "state_en": "Bahah Province",
    "state_ar": "الباحة",
    "country": "SAU",
    "code": "BAH",
    "city_en": "Bidah Valley",
    "city_code": "BIDAH-VALLEY",
    "city_ar": "وادي بيده"
  },
  {
    "state_en": "Makkah Province",
    "state_ar": "مكة المكرمة",
    "country": "SAU",
    "code": "MAK",
    "city_en": "Dahaban",
    "city_code": "DAHABAN",
    "city_ar": "ذهبان"
  },
  {
    "state_en": "Eastern Province",
    "state_ar": "المنطقة الشرقية",
    "country": "SAU",
    "code": "EAS",
    "city_en": "Dhahran",
    "city_code": "DHAHRAN",
    "city_ar": "الظهران"
  },
  {
    "state_en": "Riyadh Province",
    "state_ar": "الرياض",
    "country": "SAU",
    "code": "RIY",
    "city_en": "Dhurma",
    "city_code": "DHURMA",
    "city_ar": "ضرما"
  },
  {
    "state_en": "Eastern Province",
    "state_ar": "المنطقة الشرقية",
    "country": "SAU",
    "code": "EAS",
    "city_en": "Ghizlan",
    "city_code": "GHIZLAN",
    "city_ar": "غزلان"
  },
  {
    "state_en": "Makkah Province",
    "state_ar": "مكة المكرمة",
    "country": "SAU",
    "code": "MAK",
    "city_en": "Hadda",
    "city_code": "HADDA",
    "city_ar": "حدة"
  },
  {
    "state_en": "Eastern Province",
    "state_ar": "المنطقة الشرقية",
    "country": "SAU",
    "code": "EAS",
    "city_en": "Haradh",
    "city_code": "HARADH",
    "city_ar": "حرض"
  },
  {
    "state_en": "Eastern Province",
    "state_ar": "المنطقة الشرقية",
    "country": "SAU",
    "code": "EAS",
    "city_en": "Hawiyah",
    "city_code": "HAWIYAH",
    "city_ar": "الحوية"
  },
  {
    "state_en": "Eastern Province",
    "state_ar": "المنطقة الشرقية",
    "country": "SAU",
    "code": "EAS",
    "city_en": "Khafji",
    "city_code": "KHAFJI",
    "city_ar": "الخفجي"
  },
  {
    "state_en": "Aseer Province",
    "state_ar": "عسير",
    "country": "SAU",
    "code": "ASE",
    "city_en": "Khaiber Al Janoub",
    "city_code": "KHAIBER-AL-JANOUB",
    "city_ar": "خيبر الجنوب"
  },
  {
    "state_en": "Aseer Province",
    "state_ar": "عسير",
    "country": "SAU",
    "code": "ASE",
    "city_en": "Khamis Mushait",
    "city_code": "KHAMIS-MUSHAIT",
    "city_ar": "خميس مشيط"
  },
  {
    "state_en": "Madinah Province",
    "state_ar": "المدينة المنورة",
    "country": "SAU",
    "code": "MAD",
    "city_en": "Khaybar",
    "city_code": "KHAYBAR",
    "city_ar": "خيبر"
  },
  {
    "state_en": "Makkah Province",
    "state_ar": "مكة المكرمة",
    "country": "SAU",
    "code": "MAK",
    "city_en": "Khulais",
    "city_code": "KHULAIS",
    "city_ar": "خليص"
  },
  {
    "state_en": "Makkah Province",
    "state_ar": "مكة المكرمة",
    "country": "SAU",
    "code": "MAK",
    "city_en": "Mastorah",
    "city_code": "MASTORAH",
    "city_ar": "مستورة"
  },
  {
    "state_en": "Aseer Province",
    "state_ar": "عسير",
    "country": "SAU",
    "code": "ASE",
    "city_en": "Muhayil",
    "city_code": "MUHAYIL",
    "city_ar": "محايل"
  },
  {
    "state_en": "Eastern Province",
    "state_ar": "المنطقة الشرقية",
    "country": "SAU",
    "code": "EAS",
    "city_en": "Mulayjah",
    "city_code": "MULAYJAH",
    "city_ar": "مليجة"
  },
  {
    "state_en": "Bahah Province",
    "state_ar": "الباحة",
    "country": "SAU",
    "code": "BAH",
    "city_en": "Musaylah",
    "city_code": "MUSAYLAH",
    "city_ar": "مسيلة"
  },
  {
    "state_en": "Riyadh Province",
    "state_ar": "الرياض",
    "country": "SAU",
    "code": "RIY",
    "city_en": "Oyaynah",
    "city_code": "OYAYNAH",
    "city_ar": "العيينة"
  },
  {
    "state_en": "Makkah Province",
    "state_ar": "مكة المكرمة",
    "country": "SAU",
    "code": "MAK",
    "city_en": "Rabigh",
    "city_code": "RABIGH",
    "city_ar": "رابغ"
  },
  {
    "state_en": "Eastern Province",
    "state_ar": "المنطقة الشرقية",
    "country": "SAU",
    "code": "EAS",
    "city_en": "Ras Al Khair",
    "city_code": "RAS-AL-KHAIR",
    "city_ar": "رأس الخير"
  },
  {
    "state_en": "Eastern Province",
    "state_ar": "المنطقة الشرقية",
    "country": "SAU",
    "code": "EAS",
    "city_en": "Qaryat Al Ulya",
    "city_code": "QARYAT-AL-ULYA",
    "city_ar": "قرية العليا"
  },
  {
    "state_en": "Eastern Province",
    "state_ar": "المنطقة الشرقية",
    "country": "SAU",
    "code": "EAS",
    "city_en": "Ras Tanura",
    "city_code": "RAS-TANURA",
    "city_ar": "رأس تنورة"
  },
  {
    "state_en": "Al Qassim Province",
    "state_ar": "القصيم",
    "country": "SAU",
    "code": "ALQ",
    "city_en": "Riyadh Al Khabra",
    "city_code": "RIYADH-AL-KHABRA",
    "city_ar": "رياض الخبراء"
  },
  {
    "state_en": "Riyadh Province",
    "state_ar": "الرياض",
    "country": "SAU",
    "code": "RIY",
    "city_en": "Rumah",
    "city_code": "RUMAH",
    "city_ar": "رماح"
  },
  {
    "state_en": "Aseer Province",
    "state_ar": "عسير",
    "country": "SAU",
    "code": "ASE",
    "city_en": "Sabt Al Alayah",
    "city_code": "SABT-AL-ALAYAH",
    "city_ar": "سبت العلايه"
  },
  {
    "state_en": "Gizan Province",
    "state_ar": "جازان",
    "country": "SAU",
    "code": "GIZ",
    "city_en": "Sabya",
    "city_code": "SABYA",
    "city_ar": "صبيا"
  },
  {
    "state_en": "Eastern Province",
    "state_ar": "المنطقة الشرقية",
    "country": "SAU",
    "code": "EAS",
    "city_en": "Safwa",
    "city_code": "SAFWA",
    "city_ar": "صفوى"
  },
  {
    "state_en": "Eastern Province",
    "state_ar": "المنطقة الشرقية",
    "country": "SAU",
    "code": "EAS",
    "city_en": "Saihat",
    "city_code": "SAIHAT",
    "city_ar": "سيهات‎"
  },
  {
    "state_en": "Eastern Province",
    "state_ar": "المنطقة الشرقية",
    "country": "SAU",
    "code": "EAS",
    "city_en": "Salwa",
    "city_code": "SALWA",
    "city_ar": "سلوى"
  },
  {
    "state_en": "Gizan Province",
    "state_ar": "جازان",
    "country": "SAU",
    "code": "GIZ",
    "city_en": "Samtah",
    "city_code": "SAMTAH",
    "city_ar": "صامطة"
  },
  {
    "state_en": "Najran Province",
    "state_ar": "نجران",
    "country": "SAU",
    "code": "NAJ",
    "city_en": "Sharorah",
    "city_code": "SHARORAH",
    "city_ar": "شرورة"
  },
  {
    "state_en": "Eastern Province",
    "state_ar": "المنطقة الشرقية",
    "country": "SAU",
    "code": "EAS",
    "city_en": "Tarout",
    "city_code": "TAROUT",
    "city_ar": "تاروت"
  },
  {
    "state_en": "Makkah Province",
    "state_ar": "مكة المكرمة",
    "country": "SAU",
    "code": "MAK",
    "city_en": "Thuwal",
    "city_code": "THUWAL",
    "city_ar": "ثول"
  },
  {
    "state_en": "Riyadh Province",
    "state_ar": "الرياض",
    "country": "SAU",
    "code": "RIY",
    "city_en": "Tumair",
    "city_code": "TUMAIR",
    "city_ar": "تمير"
  },
  {
    "state_en": "Eastern Province",
    "state_ar": "المنطقة الشرقية",
    "country": "SAU",
    "code": "EAS",
    "city_en": "Udhailiyah",
    "city_code": "UDHAILIYAH",
    "city_ar": "العضيلية"
  },
  {
    "state_en": "Al Qassim Province",
    "state_ar": "القصيم",
    "country": "SAU",
    "code": "ALQ",
    "city_en": "Unayzah",
    "city_code": "UNAYZAH",
    "city_ar": "عنيزة"
  },
  {
    "state_en": "Al Qassim Province",
    "state_ar": "القصيم",
    "country": "SAU",
    "code": "ALQ",
    "city_en": "Uthal",
    "city_code": "UTHAL",
    "city_ar": "اوثال"
  },
  {
    "state_en": "Al Qassim Province",
    "state_ar": "القصيم",
    "country": "SAU",
    "code": "ALQ",
    "city_en": "Uyun Al Jawa",
    "city_code": "UYUN-AL-JAWA",
    "city_ar": "عيون الجواء"
  },
  {
    "state_en": "Sharjah",
    "state_ar": "الشارقة",
    "country": "ARE",
    "code": "SHA",
    "city_en": "Sharjah",
    "city_code": "SHARJAH",
    "city_ar": "الشارقة"
  },
  {
    "state_en": "Abu Dhabi",
    "state_ar": "أبو ظبي",
    "country": "ARE",
    "code": "ABU",
    "city_en": "Al Ain",
    "city_code": "AL-AIN",
    "city_ar": "العين"
  },
  {
    "state_en": "Ajman",
    "state_ar": "عجمان",
    "country": "ARE",
    "code": "AJM",
    "city_en": "Ajman",
    "city_code": "AJMAN",
    "city_ar": "عجمان"
  },
  {
    "state_en": "Ras Al Khaimah",
    "state_ar": "إمارة رأس الخيمة",
    "country": "ARE",
    "code": "RAS",
    "city_en": "Ras Al Khaimah",
    "city_code": "RAS-AL-KHAIMAH",
    "city_ar": "إمارة رأس الخيمة"
  },
  {
    "state_en": "Fujairah",
    "state_ar": "الفجيرة",
    "country": "ARE",
    "code": "FUJ",
    "city_en": "Fujairah",
    "city_code": "FUJAIRAH",
    "city_ar": "الفجيرة"
  },
  {
    "state_en": "Umm Al Quwain",
    "state_ar": "ام القيوين",
    "country": "ARE",
    "code": "UMM",
    "city_en": "Umm Al Quwain",
    "city_code": "UMM-AL-QUWAIN",
    "city_ar": "ام القيوين"
  },
  {
    "state_en": "Farwaniyah",
    "state_ar": "الفروانية",
    "country": "KWT",
    "code": "FARWANIYA",
    "city_en": "Farwaniyah",
    "city_code": "FARWANIYA",
    "city_ar": "الفروانية"
  },
  {
    "state_en": "Jahra",
    "state_ar": "الجهراء",
    "country": "KWT",
    "code": "JAHRA",
    "city_en": "Jahra",
    "city_code": "JAHRA",
    "city_ar": "الجهراء"
  },
  {
    "state_en": "Kuwait City",
    "state_ar": "مدينة الكويت",
    "country": "KWT",
    "code": "KUWAIT-CITY",
    "city_en": "Kuwait City",
    "city_code": "KUWAIT-CITY",
    "city_ar": "مدينة الكويت"
  },
  {
    "state_en": "Ahmadi",
    "state_ar": "الأحمدي",
    "country": "KWT",
    "code": "AHMADI",
    "city_en": "Ahmadi",
    "city_code": "AHMADI",
    "city_ar": "الأحمدي"
  },
  {
    "state_en": "Mubarak Al Kabeer",
    "state_ar": "مبارك الكبير",
    "country": "KWT",
    "code": "MUBARAK-AL-KABEER",
    "city_en": "Mubarak Al Kabeer",
    "city_code": "MUBARAK-AL-KABEER",
    "city_ar": "مبارك الكبير"
  },
  {
    "state_en": "Hawally",
    "state_ar": "حولي",
    "country": "KWT",
    "code": "HAWALLY",
    "city_en": "Hawally",
    "city_code": "HAWALLY",
    "city_ar": "حولي"
  },
  {
    "state_en": "Al Shamal",
    "state_ar": "الشمال",
    "country": "QAT",
    "code": "FUWAYRIT",
    "city_en": "Fuwayrit",
    "city_code": "FUWAYRIT",
    "city_ar": "فويرط"
  },
  {
    "state_en": "Umm Salal",
    "state_ar": "أم صلال",
    "country": "QAT",
    "code": "UMM-SALAL-MUHAMMED",
    "city_en": "Umm Salal Muhammed",
    "city_code": "UMM-SALAL-MUHAMMED",
    "city_ar": "أم صلال محمد‎"
  },
  {
    "state_en": "Al Khor",
    "state_ar": "الخور",
    "country": "QAT",
    "code": "RAS-LAFFAN",
    "city_en": "Ras Laffan",
    "city_code": "RAS LAFFAN",
    "city_ar": "رأس لفان"
  },
  {
    "state_en": "Al Rayyan",
    "state_ar": "الريان",
    "country": "QAT",
    "code": "AL-RAYYAN",
    "city_en": "Al Rayyan",
    "city_code": "AL-RAYYAN",
    "city_ar": "الريان"
  },
  {
    "state_en": "Al Wakrah",
    "state_ar": "الريان",
    "country": "QAT",
    "code": "AL-WAKRAH",
    "city_en": "Al Wakrah",
    "city_code": "AL-WAKRAH",
    "city_ar": "الوكرة"
  },
  {
    "state_en": "Al Shamal",
    "state_ar": "الشمال",
    "country": "QAT",
    "code": "AL-SHAMAL",
    "city_en": "Al Shamal",
    "city_code": "AL-SHAMAL",
    "city_ar": "الشمال"
  },
  {
    "state_en": "Al Shahaniya",
    "state_ar": "الشحانية",
    "country": "QAT",
    "code": "ZEKREET",
    "city_en": "Zekreet",
    "city_code": "ZEKREET",
    "city_ar": "زكريت"
  },
  {
    "state_en": "Al Shahaniya",
    "state_ar": "الشحانية",
    "country": "QAT",
    "code": "AL-SHAHANIYA",
    "city_en": "Al Shahaniya",
    "city_code": "AL SHAHANIYA",
    "city_ar": "الشحانية"
  },
  {
    "state_en": "Doha",
    "state_ar": "الدوحة",
    "country": "QAT",
    "code": "AL-SHAHANIYA",
    "city_en": "Doha",
    "city_code": "DOHA",
    "city_ar": "الدوحة"
  },
  {
    "state_en": "Al Daayen",
    "state_ar": "الضعاين",
    "country": "QAT",
    "code": "LUSAIL",
    "city_en": "Lusail",
    "city_code": "LUSAIL",
    "city_ar": "لوسيل"
  },
  {
    "state_en": "Al Khor",
    "state_ar": "الخور",
    "country": "QAT",
    "code": "AL-KHOR",
    "city_en": "Al Khor",
    "city_code": "AL-KHOR",
    "city_ar": "الخور"
  },
  {
    "state_en": "Al Shahaniya",
    "state_ar": "الشحانية",
    "country": "QAT",
    "code": "DUKHAN",
    "city_en": "Dukhan",
    "city_code": "DUKHAN",
    "city_ar": "دخان"
  },
  {
    "state_en": "Al Dakhira",
    "state_ar": "الذخیره",
    "country": "QAT",
    "code": "DAKHIRA",
    "city_en": "Dakhira",
    "city_code": "DAKHIRA",
    "city_ar": "دخان"
  },
  {
    "state_en": "Doha",
    "state_ar": "الدوحة",
    "country": "QAT",
    "code": "PEARL-QATAR",
    "city_en": "The Pearl-Qatar",
    "city_code": "PEARL-QATAR",
    "city_ar": "مشروع اللؤلؤة"
  },
  {
    "state_en": "Al Wakrah",
    "state_ar": "الوكرة",
    "country": "QAT",
    "code": "MESAIEED",
    "city_en": "Mesaieed",
    "city_code": "MESSAIDE",
    "city_ar": "مسيعيد"
  },
  {
    "state_en": "Hatta",
    "state_ar": "حتا",
    "country": "ARE",
    "code": "HATTA",
    "city_en": "Hatta",
    "city_code": "HATTA",
    "city_ar": "حتا"
  },
  {
    "state_en": "Margham",
    "state_ar": "مرغم",
    "country": "ARE",
    "code": "MARGHAM",
    "city_en": "Margham",
    "city_code": "MARGHAM",
    "city_ar": "مرغم"
  }
]
