<svg xmlns="http://www.w3.org/2000/svg" viewBox="0 0 130.2 130.2">
    <style type="text/css">
                        .st0_play1 {
                            fill: currentColor;
                        }
    </style>
    <path class="st0_play1" d="M64.8 128c-34.7 0-63-28.3-63-63S30 2 64.8 2s63 28.3 63 63S99.5 128 64.8 128zM64.8 7c-32 0-58 26-58 58s26 58 58 58 58-26 58-58S96.7 7 64.8 7z">
    </path>
    <polygon class="st0_play1" points="57.4 52 76.4 65 57.4 78 "></polygon>
</svg>