<svg xmlns="http://www.w3.org/2000/svg" viewBox="0 0 43.3 35.6">
    <style type="text/css"> .st0_wishlist_yes{fill:currentColor;} </style>
    <path class="st0_wishlist_yes" d="M21.5 34.6L3.6 16.9c-3.7-3.7-3.7-9.8 0-13.5s9.8-3.7 13.5 0l4.4 4.4L26 3.4c3.7-3.7 9.8-3.7 13.5 0s3.7 9.8 0 13.5l0 0L21.5 34.6z"></path>
</svg>