{
    "name": "Main Container (1 row)",
    "description": "This is a layout component with 1 row.",
    "group": "commerce_layouts",
    "attribute_definition_groups": [
            {
                "id": "bodyConfiguration",
                "name": "Configuration",
                "description": "Configuration main content",
                "attribute_definitions": [
                    {
                        "id": "classes",
                        "name": "Custom Classes for main container",
                        "type": "string",
                        "required": false
                    }
                ]
            }
    ],
    "region_definitions": [
        {
            "id":"row1",
            "name":"Row1",
            "component_type_exclusions": []
        }
    ]
}
