{
    "name": "Mosaic Component (2 per row)",
    "description": "This is a layout component for 2 columns in 1 row.",
    "group": "commerce_layouts",
    "attribute_definition_groups": [
            {
                "id": "bodyConfiguration",
                "name": "Configuration",
                "description": "Configuration main content",
                "attribute_definitions": [
                    {
                        "id": "classes3",
                        "name": "Custom Classes for general component",
                        "type": "string",
                        "required": false
                    },
                    {
                        "id": "classes1",
                        "name": "Custom Classes for first block",
                        "type": "string",
                        "required": false
                    },
                    {
                        "id": "classes2",
                        "name": "Custom Classes for second block",
                        "type": "string",
                        "required": false
                    }
                ]
            }
    ],
    "region_definitions": [
        {
            "id":"column1",
            "name":"Column 1",
            "component_type_exclusions": []
        },
        {
            "id":"column2",
            "name":"Column 2",
            "component_type_exclusions": []
        }
    ]
}
