{
    "name": "Container",
    "group": "commerce_layouts",
    "attribute_definition_groups": [
      {
        "id": "heading",
        "attribute_definitions": [
          {
            "id": "header",
            "name": "Header",
            "type": "string",
            "required": false
          },
          {
            "id": "direction",
            "name": "Direction of container",
            "type": "enum",
            "values": ["row", "column"],
            "required": false
          }
        ]
      }
    ],
    "region_definitions": [
      {
        "id":"content",
        "name":"Content"
      }
    ]
  }
  