{
    "name": "Static Page Layout",
    "description": "This is the Static Page layout component.",
    "group": "commerce_layouts",
    "attribute_definition_groups": [
        {
            "id": "pageTitle",
            "name": "Static Page Title",
            "description": "Title to be displayed on the page.",
            "attribute_definitions": [
                {
                    "id": "title",
                    "name": "Title",
                    "description": "Title to be displayed on the page.",
                    "type": "string",
                    "required": true
                }
            ]
        },
        {
            "id": "columnConfiguration",
            "name": "Column Configuration",
            "description": "Title to be displayed above the column on the page, when display down md size.",
            "attribute_definitions": [
                {
                    "id": "column2Title",
                    "name": "Column-2 Title",
                    "description": "Title to be displayed above the column on the page, when display down md size",
                    "type": "string",
                    "required": false
                },
                {
                    "id": "column3Title",
                    "name": "Column-3 Title",
                    "description": "Title to be displayed above the column on the page, when display down md size",
                    "type": "string",
                    "required": false
                },
                {
                    "id": "column4Title",
                    "name": "Column-4 Title",
                    "description": "Title to be displayed above the column on the page, when display down md size",
                    "type": "string",
                    "required": false
                }
            ]
        }
    ],
    "region_definitions": [
        {
            "id":"column1",
            "name":"Column 1",
            "component_type_exclusions": [
                { "type_id": "commerce_layouts.mobileGrid1r1c" },
                { "type_id": "commerce_layouts.mobileGrid2r1c" },
                { "type_id": "commerce_layouts.mobileGrid3r1c" },
                { "type_id": "commerce_layouts.mobileGrid2r2c" },
                { "type_id": "commerce_layouts.mobileGrid2r3c" },
                { "type_id": "commerce_layouts.mobileGrid3r2c" },
                { "type_id": "commerce_layouts.carousel" },
                { "type_id": "commerce_layouts.popularCategories" },
                { "type_id": "commerce_layouts.mobileGridLookBook" }
            ]
        },
        {
            "id":"column2",
            "name":"Column 2",
            "max_components":1,
            "component_type_exclusions": [
                { "type_id": "commerce_layouts.mobileGrid1r1c" },
                { "type_id": "commerce_layouts.mobileGrid2r1c" },
                { "type_id": "commerce_layouts.mobileGrid3r1c" },
                { "type_id": "commerce_layouts.mobileGrid2r2c" },
                { "type_id": "commerce_layouts.mobileGrid2r3c" },
                { "type_id": "commerce_layouts.mobileGrid3r2c" },
                { "type_id": "commerce_layouts.carousel" },
                { "type_id": "commerce_layouts.popularCategories" },
                { "type_id": "commerce_layouts.mobileGridLookBook" }
            ]
        },
        {
            "id":"column3",
            "name":"Column 3",
            "max_components":1,
            "component_type_exclusions": [
                { "type_id": "commerce_layouts.mobileGrid1r1c" },
                { "type_id": "commerce_layouts.mobileGrid2r1c" },
                { "type_id": "commerce_layouts.mobileGrid3r1c" },
                { "type_id": "commerce_layouts.mobileGrid2r2c" },
                { "type_id": "commerce_layouts.mobileGrid2r3c" },
                { "type_id": "commerce_layouts.mobileGrid3r2c" },
                { "type_id": "commerce_layouts.carousel" },
                { "type_id": "commerce_layouts.popularCategories" },
                { "type_id": "commerce_layouts.mobileGridLookBook" }
            ]
        },
        {
            "id":"column4",
            "name":"Column 4",
            "max_components":1,
            "component_type_exclusions": [
                { "type_id": "commerce_layouts.mobileGrid1r1c" },
                { "type_id": "commerce_layouts.mobileGrid2r1c" },
                { "type_id": "commerce_layouts.mobileGrid3r1c" },
                { "type_id": "commerce_layouts.mobileGrid2r2c" },
                { "type_id": "commerce_layouts.mobileGrid2r3c" },
                { "type_id": "commerce_layouts.mobileGrid3r2c" },
                { "type_id": "commerce_layouts.carousel" },
                { "type_id": "commerce_layouts.popularCategories" },
                { "type_id": "commerce_layouts.mobileGridLookBook" }
            ]
        }
    ]
}
