<svg xmlns="http://www.w3.org/2000/svg" width="233" height="43" viewBox="0 0 233 43">
    <path fill="#FFF" fill-rule="nonzero" d="M15.486 13.045h.086L20.963 25.6l5.392-12.554h.043l2.113 12.17h2.33L27.13 6l-6.168 14.518L14.753 6l-3.667 19.215h2.33l2.07-12.17zm21.436 7.558h8.281l2.07 4.612h2.416L41.063 6 32.48 25.215h2.415l2.027-4.612zm4.14-9.564l3.192 7.472h-6.383l3.192-7.472zm12.38 6.49l.905-.897 6.772 8.583h3.02L55.9 15.095l8.109-8.284h-2.933l-7.634 7.985V6.811h-2.286v18.404h2.286v-7.686zm21.738 5.594H67.76v-6.96h7.203V14.07h-7.203V8.904h7.419V6.81h-9.662v18.404h9.662v-2.092zm15.959 2.476c4.14 0 6.599-3.117 6.599-7.13V6.81h-2.243v10.846c0 2.989-.906 5.764-4.356 5.764-3.45 0-4.357-2.775-4.357-5.764V6.811H84.54v11.657c0 4.014 2.502 7.131 6.6 7.131zm11.947-8.113h1.294c3.407 0 6.297-1.494 6.297-5.38 0-3.373-1.725-5.337-7.246-5.337h-2.588v18.403h2.243v-7.686zm0-8.625h.604c2.243 0 4.917.341 4.917 3.202 0 2.947-2.502 3.374-4.788 3.374h-.733V8.86zm18.72 7.302h6.296V14.07h-6.297V8.904h6.47V6.81h-8.713v18.404h2.243v-9.052zm17.295 9.436c5.219 0 9.446-4.142 9.446-9.607 0-5.252-4.27-9.608-9.446-9.608s-9.446 4.313-9.446 9.608c0 5.465 4.227 9.607 9.446 9.607zm0-17.037c4.227 0 7.203 3.373 7.203 7.43 0 4.184-3.278 7.43-7.203 7.43-3.882 0-7.203-3.246-7.203-7.43 0-4.057 2.976-7.43 7.203-7.43zm17.123 8.625c2.588-.299 4.313-2.519 4.313-5.166 0-1.751-.862-3.502-2.372-4.398-1.423-.812-3.148-.854-4.744-.854h-2.718v18.403h2.243v-7.771h.95l5.304 7.814h2.718l-5.694-8.028zm-2.545-1.665h-.733V8.861h.604c2.243 0 4.917.427 4.917 3.288 0 2.946-2.502 3.373-4.788 3.373zm26.613 7.6h-7.462v-6.96h7.246V14.07h-7.246V8.904h7.462V6.81h-9.705v18.404h9.705v-2.092zm8.712-2.69l-5.391-13.62h-2.459l7.85 19.385 7.807-19.386h-2.458l-5.349 13.622zm19.021 2.69h-7.418v-6.96h7.203V14.07h-7.203V8.904h7.418V6.81h-9.661v18.404h9.661v-2.092zM222 25.216l-5.693-8.028c2.588-.299 4.313-2.519 4.313-5.166 0-1.751-.863-3.502-2.372-4.398-1.424-.812-3.15-.854-4.745-.854h-2.717v18.403h2.243v-7.771h.949l5.305 7.771H222v.043zm-8.238-9.693h-.733V8.861h.603c2.243 0 4.917.427 4.917 3.288 0 2.946-2.501 3.373-4.787 3.373zm-93.294 14.902h-.906v6.277h.777v-2.647h.474c1.208 0 2.243-.513 2.243-1.836 0-1.11-.604-1.794-2.588-1.794zm.13 2.947h-.216v-2.264h.216c.776 0 1.725.129 1.725 1.11-.043 1.025-.906 1.154-1.725 1.154zM11 33.2h104.163v.726H11V33.2zm179.212.17v.556h4.658V33.2h-4.658v.17zm-62.066-1.152c0-.598-.302-1.196-.82-1.495-.518-.299-1.121-.299-1.682-.299h-.949v6.277h.776v-2.647h.345l1.855 2.647h.949l-1.984-2.733c.906-.085 1.51-.854 1.51-1.75zm-2.416 1.195h-.259V31.15h.216c.776 0 1.725.128 1.725 1.11 0 .982-.905 1.153-1.682 1.153zm7.333-3.117c-1.812 0-3.322 1.495-3.322 3.288 0 1.879 1.51 3.288 3.322 3.288 1.854 0 3.32-1.41 3.32-3.288 0-1.793-1.509-3.288-3.32-3.288zm0 5.807a2.546 2.546 0 0 1-2.545-2.562c0-1.366 1.035-2.562 2.545-2.562s2.544 1.153 2.544 2.562a2.546 2.546 0 0 1-2.544 2.562zm5.003.598h.776v-3.074h2.243V32.9h-2.243v-1.75h2.286v-.727h-3.062v6.277zm4.917 0h3.45v-.683h-2.63v-2.391h2.544V32.9h-2.545v-1.75h2.631v-.727h-3.45v6.277zm7.418-3.715l-.474-.17c-.388-.171-.863-.428-.863-.897 0-.555.561-.897 1.079-.897.474 0 .776.214 1.035.598l.647-.384c-.345-.598-.906-.94-1.64-.94-.948 0-1.854.598-1.854 1.623 0 .896.647 1.28 1.38 1.58l.432.17c.56.214 1.078.513 1.078 1.196 0 .64-.474 1.238-1.165 1.238-.69 0-1.25-.512-1.207-1.195l-.82.17c.13 1.025.95 1.751 1.941 1.751 1.122 0 2.027-.811 2.027-1.964-.043-1.025-.69-1.494-1.596-1.879zm5.435 0l-.474-.17c-.389-.171-.906-.428-.906-.897 0-.555.56-.897 1.078-.897.475 0 .777.214 1.035.598l.647-.384c-.345-.598-.905-.94-1.639-.94-.949 0-1.854.598-1.854 1.623 0 .896.647 1.28 1.38 1.58l.431.17c.56.214 1.078.513 1.078 1.196 0 .64-.474 1.238-1.164 1.238s-1.25-.512-1.25-1.195l-.82.17c.129 1.025.948 1.751 1.94 1.751 1.122 0 2.028-.811 2.028-1.964.086-1.025-.604-1.494-1.51-1.879zm3.364-2.562h.777v6.277h-.777v-6.277zm5.78-.128c-1.812 0-3.321 1.495-3.321 3.288 0 1.879 1.51 3.288 3.321 3.288 1.855 0 3.321-1.41 3.321-3.288 0-1.793-1.466-3.288-3.321-3.288zm0 5.807a2.546 2.546 0 0 1-2.545-2.562c0-1.366 1.035-2.562 2.545-2.562s2.545 1.153 2.545 2.562a2.546 2.546 0 0 1-2.545 2.562zm9.748-1.024l-4.788-4.954v6.576h.776v-4.654L175.504 37v-6.576h-.776v4.655zm2.156 1.622h.863l.733-1.58h2.933l.733 1.58h.863l-3.02-6.533-3.105 6.533zm1.898-2.263l1.122-2.562 1.12 2.562h-2.242zm6.427-4.014h-.82v6.277h2.76v-.683h-1.94v-5.594zm14.363 0h-.906v6.277h.776v-2.647h.475c1.207 0 2.242-.513 2.242-1.836 0-1.11-.603-1.794-2.587-1.794zm.172 2.947h-.259v-2.264h.216c.776 0 1.725.129 1.725 1.11 0 1.025-.906 1.154-1.682 1.154zm2.674 3.33h.863l.733-1.58h2.933l.733 1.58h.863l-3.02-6.533-3.105 6.533zm1.941-2.263l1.122-2.562 1.121 2.562h-2.243zm9.058-2.22c0-.598-.302-1.196-.82-1.495-.517-.299-1.121-.299-1.682-.299h-.949v6.277h.777v-2.647h.345l1.854 2.647h.95l-1.985-2.733c.906-.085 1.51-.854 1.51-1.75zM211 33.413h-.258V31.15h.215c.777 0 1.726.128 1.726 1.11 0 .982-.863 1.153-1.683 1.153zm4.443-2.989h.776v6.277h-.776v-6.277zm5.003 2.562l-.474-.17c-.388-.171-.906-.428-.906-.897 0-.555.56-.897 1.078-.897.475 0 .777.214 1.035.598l.647-.384c-.345-.598-.905-.94-1.639-.94-.948 0-1.854.598-1.854 1.623 0 .896.647 1.28 1.38 1.58l.431.17c.561.214 1.079.513 1.079 1.196 0 .64-.475 1.238-1.165 1.238-.69 0-1.25-.512-1.25-1.195l-.82.17c.13 1.025.949 1.751 1.94 1.751 1.122 0 2.028-.811 2.028-1.964.043-1.025-.604-1.494-1.51-1.879z"/>
</svg>
