<svg xmlns="http://www.w3.org/2000/svg" viewBox="0 0 233 43" width="233" height="43">
	<style>
		tspan { white-space:pre }
		.shp0 { fill: #000000 } 
		.shp1 { fill: #ffffff } 
	</style>
	<path id="Shape 2" class="shp0" d="M-7 -16L244 -16L244 54L-7 54L-7 -16Z" />
	<path id="Layer" fill-rule="evenodd" class="shp1" d="M13.42 25.21L11.09 25.21L14.75 6L20.96 20.52L27.13 6L30.84 25.22L28.51 25.22L26.4 13.05L26.36 13.05L20.96 25.6L15.57 13.04L15.49 13.04L13.42 25.21ZM34.89 25.21L32.48 25.21L41.06 6L49.69 25.22L47.27 25.22L45.2 20.6L36.92 20.6L34.89 25.21ZM41.06 11.04L41.06 11.04L41.06 11.04L41.06 11.04ZM41.06 11.04L37.87 18.51L44.25 18.51L41.06 11.04ZM53.44 17.53L53.44 25.21L51.16 25.21L51.16 6.81L53.44 6.81L53.44 14.8L61.08 6.81L64.01 6.81L55.9 15.1L64.14 25.22L61.12 25.22L54.35 16.63L53.44 17.53ZM75.18 23.12L75.18 23.12L75.18 23.12L75.18 23.12ZM75.18 23.12L75.18 25.21L65.52 25.21L65.52 6.81L75.18 6.81L75.18 8.9L67.76 8.9L67.76 14.07L74.96 14.07L74.96 16.16L67.76 16.16L67.76 23.12L75.18 23.12ZM91.14 25.6C87.04 25.6 84.54 22.48 84.54 18.47L84.54 6.81L86.78 6.81L86.78 17.66C86.78 20.64 87.69 23.42 91.14 23.42C94.59 23.42 95.5 20.64 95.5 17.66L95.5 6.81L97.74 6.81L97.74 18.47C97.74 22.48 95.28 25.6 91.14 25.6L91.14 25.6ZM103.09 25.17L100.84 25.17L100.84 6.77L103.43 6.77C108.95 6.77 110.68 8.73 110.68 12.11C110.68 15.99 107.79 17.49 104.38 17.49L103.09 17.49L103.09 25.17ZM103.09 15.44L103.82 15.44C106.11 15.44 108.61 15.01 108.61 12.06C108.61 9.2 105.93 8.86 103.69 8.86L103.09 8.86L103.09 15.44ZM121.81 16.16L121.81 25.21L119.56 25.21L119.56 6.81L128.28 6.81L128.28 8.9L121.81 8.9L121.81 14.07L128.1 14.07L128.1 16.16L121.81 16.16L121.81 16.16ZM129.66 15.99C129.66 10.7 133.93 6.38 139.1 6.38C144.28 6.38 148.55 10.74 148.55 15.99C148.55 21.46 144.32 25.6 139.1 25.6C133.88 25.6 129.66 21.46 129.66 15.99ZM131.9 15.99C131.9 20.18 135.22 23.42 139.1 23.42C143.03 23.42 146.3 20.18 146.3 15.99C146.3 11.94 143.33 8.56 139.1 8.56C134.87 8.56 131.9 11.94 131.9 15.99ZM156.22 17.19L161.92 25.22L159.2 25.22L153.9 17.4L152.95 17.4L152.95 25.17L150.7 25.17L150.7 6.77L153.42 6.77C155.02 6.77 156.74 6.81 158.16 7.62C159.67 8.52 160.54 10.27 160.54 12.02C160.54 14.67 158.81 16.89 156.22 17.19ZM153.68 15.52C155.97 15.52 158.47 15.1 158.47 12.15C158.47 9.29 155.79 8.86 153.55 8.86L152.95 8.86L152.95 15.52L153.68 15.52ZM180.29 23.12L180.29 25.21L170.59 25.21L170.59 6.81L180.29 6.81L180.29 8.9L172.83 8.9L172.83 14.07L180.08 14.07L180.08 16.16L172.83 16.16L172.83 23.12L180.29 23.12ZM189 20.43L194.35 6.81L196.81 6.81L189 26.2L181.15 6.81L183.61 6.81L189 20.43L189 20.43ZM208.02 23.12L208.02 25.21L198.36 25.21L198.36 6.81L208.02 6.81L208.02 8.9L200.61 8.9L200.61 14.07L207.81 14.07L207.81 16.16L200.61 16.16L200.61 23.12L208.02 23.12ZM222 25.22L221.97 25.17L222 25.17L222 25.22ZM221.97 25.17L219.28 25.17L213.98 17.4L213.03 17.4L213.03 25.17L210.79 25.17L210.79 6.77L213.5 6.77C215.1 6.77 216.82 6.81 218.25 7.62C219.76 8.52 220.62 10.27 220.62 12.02C220.62 14.67 218.89 16.89 216.31 17.19L221.97 25.17ZM213.76 15.52C216.05 15.52 218.55 15.1 218.55 12.15C218.55 9.29 215.88 8.86 213.63 8.86L213.03 8.86L213.03 15.52L213.76 15.52L213.76 15.52ZM123.06 32.22C123.06 33.54 122.02 34.05 120.81 34.05L120.34 34.05L120.34 36.7L119.56 36.7L119.56 30.43L120.47 30.43C122.45 30.43 123.06 31.11 123.06 32.22ZM122.32 32.22C122.32 31.24 121.37 31.11 120.6 31.11L120.38 31.11L120.38 33.37L120.6 33.37C121.42 33.37 122.28 33.24 122.32 32.22ZM11 33.2L115.16 33.2L115.16 33.93L11 33.93L11 33.2ZM190.21 33.2L194.87 33.2L194.87 33.93L190.21 33.93L190.21 33.2ZM128.15 32.22C128.15 33.11 127.54 33.88 126.64 33.97L128.62 36.7L127.67 36.7L125.82 34.05L125.47 34.05L125.47 36.7L124.69 36.7L124.69 30.42L125.64 30.42C126.2 30.42 126.81 30.42 127.33 30.72C127.84 31.02 128.15 31.62 128.15 32.22ZM125.73 33.41C126.51 33.41 127.41 33.24 127.41 32.26C127.41 31.28 126.46 31.15 125.69 31.15L125.47 31.15L125.47 33.41L125.73 33.41ZM136.38 33.58C136.38 35.46 134.92 36.87 133.06 36.87C131.25 36.87 129.74 35.46 129.74 33.58C129.74 31.79 131.25 30.3 133.06 30.3C134.87 30.3 136.38 31.79 136.38 33.58ZM133.06 36.1C133.4 36.1 133.73 36.04 134.04 35.91C134.35 35.78 134.63 35.59 134.87 35.35C135.1 35.11 135.29 34.83 135.42 34.52C135.54 34.21 135.61 33.88 135.61 33.54C135.61 32.13 134.57 30.98 133.06 30.98C131.55 30.98 130.52 32.18 130.52 33.54C130.52 33.88 130.58 34.21 130.71 34.52C130.83 34.83 131.02 35.11 131.26 35.35C131.49 35.59 131.78 35.78 132.09 35.91C132.4 36.04 132.73 36.1 133.06 36.1ZM138.07 30.42L141.13 30.42L141.13 31.15L138.84 31.15L138.84 32.9L141.08 32.9L141.08 33.63L138.84 33.63L138.84 36.7L138.07 36.7L138.07 30.42ZM142.98 30.42L146.43 30.42L146.43 31.15L143.8 31.15L143.8 32.9L146.35 32.9L146.35 33.63L143.8 33.63L143.8 36.02L146.43 36.02L146.43 36.7L142.98 36.7L142.98 30.42ZM152 34.87C152 36.02 151.09 36.83 149.97 36.83C148.98 36.83 148.16 36.1 148.03 35.08L148.85 34.91C148.81 35.59 149.37 36.1 150.06 36.1C150.75 36.1 151.22 35.51 151.22 34.87C151.22 34.18 150.7 33.88 150.14 33.67L149.71 33.5C148.98 33.2 148.33 32.82 148.33 31.92C148.33 30.89 149.24 30.3 150.19 30.3C150.92 30.3 151.48 30.64 151.82 31.24L151.18 31.62C150.92 31.24 150.62 31.02 150.14 31.02C149.63 31.02 149.06 31.36 149.06 31.92C149.06 32.39 149.54 32.65 149.93 32.82L150.4 32.99C151.31 33.37 151.95 33.84 152 34.87ZM157.35 34.87C157.35 36.02 156.44 36.83 155.32 36.83C154.33 36.83 153.51 36.1 153.38 35.08L154.2 34.91C154.2 35.59 154.76 36.1 155.45 36.1C156.14 36.1 156.61 35.51 156.61 34.87C156.61 34.18 156.09 33.88 155.53 33.67L155.1 33.5C154.37 33.2 153.72 32.82 153.72 31.92C153.72 30.89 154.63 30.3 155.58 30.3C156.31 30.3 156.87 30.64 157.22 31.24L156.57 31.62C156.31 31.24 156.01 31.02 155.53 31.02C155.02 31.02 154.46 31.36 154.46 31.92C154.46 32.39 154.97 32.65 155.36 32.82L155.84 32.99C156.74 33.37 157.43 33.84 157.35 34.87ZM159.98 30.42L159.98 36.7L159.2 36.7L159.2 30.42L159.98 30.42ZM168.3 33.58C168.3 35.46 166.83 36.87 164.98 36.87C163.17 36.87 161.66 35.46 161.66 33.58C161.66 31.79 163.17 30.3 164.98 30.3C166.83 30.3 168.3 31.79 168.3 33.58ZM164.98 36.1C165.32 36.1 165.65 36.04 165.96 35.91C166.27 35.78 166.55 35.59 166.79 35.35C167.02 35.11 167.21 34.83 167.34 34.52C167.46 34.21 167.53 33.88 167.52 33.54C167.52 32.13 166.49 30.98 164.98 30.98C163.47 30.98 162.44 32.18 162.43 33.54C162.43 33.88 162.5 34.21 162.62 34.52C162.75 34.83 162.94 35.11 163.17 35.35C163.41 35.59 163.69 35.78 164 35.91C164.31 36.04 164.64 36.1 164.98 36.1ZM174.73 30.42L175.5 30.42L175.5 37L170.72 32.05L170.72 36.7L169.94 36.7L169.94 30.13L174.73 35.08L174.73 30.42ZM179.99 30.17L183.01 36.7L182.15 36.7L181.41 35.12L178.48 35.12L177.75 36.7L176.88 36.7L179.99 30.17ZM178.78 34.44L181.02 34.44L179.9 31.88L178.78 34.44ZM185.21 30.42L185.21 36.02L187.15 36.02L187.15 36.7L184.39 36.7L184.39 30.42L185.21 30.42ZM202.16 32.22C202.16 33.54 201.12 34.05 199.92 34.05L199.44 34.05L199.44 36.7L198.67 36.7L198.67 30.42L199.57 30.42C201.56 30.42 202.16 31.11 202.16 32.22ZM199.74 33.37C200.52 33.37 201.43 33.24 201.43 32.22C201.43 31.24 200.48 31.11 199.7 31.11L199.48 31.11L199.48 33.37L199.74 33.37ZM205.52 30.17L208.54 36.7L207.68 36.7L206.95 35.12L204.01 35.12L203.28 36.7L202.42 36.7L205.52 30.17ZM204.36 34.44L206.6 34.44L205.48 31.88L204.36 34.44ZM213.42 32.22C213.42 33.11 212.81 33.88 211.91 33.97L213.89 36.7L212.94 36.7L211.09 34.05L210.74 34.05L210.74 36.7L209.97 36.7L209.97 30.42L210.91 30.42C211.48 30.42 212.08 30.42 212.6 30.72C213.11 31.02 213.42 31.62 213.42 32.22ZM212.68 32.26C212.68 31.28 211.73 31.15 210.96 31.15L210.74 31.15L210.74 33.41L211 33.41C211.82 33.41 212.68 33.24 212.68 32.26ZM216.22 30.42L216.22 36.7L215.44 36.7L215.44 30.42L216.22 30.42ZM221.96 34.86C221.96 36.02 221.05 36.83 219.93 36.83C218.94 36.83 218.12 36.1 217.99 35.08L218.81 34.91C218.81 35.59 219.37 36.1 220.06 36.1C220.75 36.1 221.22 35.5 221.22 34.86C221.22 34.18 220.71 33.88 220.14 33.67L219.71 33.5C218.98 33.2 218.33 32.81 218.33 31.92C218.33 30.89 219.24 30.3 220.19 30.3C220.92 30.3 221.48 30.64 221.83 31.24L221.18 31.62C220.92 31.24 220.62 31.02 220.14 31.02C219.63 31.02 219.07 31.36 219.07 31.92C219.07 32.39 219.58 32.64 219.97 32.82L220.45 32.99C221.35 33.37 222 33.84 221.96 34.86Z" />
</svg>