<svg xmlns="http://www.w3.org/2000/svg" xmlns:xlink="http://www.w3.org/1999/xlink" width="40" height="40" viewBox="0 0 40 40">
    <defs>
        <path id="prefix__a" d="M17 30.381c2.404 0 4.647-.614 6.73-1.843 2.03-1.175 3.633-2.777 4.808-4.807 1.23-2.084 1.843-4.327 1.843-6.731s-.614-4.647-1.843-6.73c-1.175-2.03-2.777-3.633-4.807-4.808-2.084-1.23-4.327-1.843-6.731-1.843s-4.647.614-6.73 1.843c-2.03 1.175-3.633 2.777-4.808 4.807-1.23 2.084-1.843 4.327-1.843 6.731s.614 4.647 1.843 6.73c1.175 2.03 2.777 3.633 4.807 4.808 2.084 1.23 4.327 1.843 6.731 1.843zM17 .333c3.045 0 5.863.762 8.454 2.284 2.51 1.442 4.487 3.419 5.929 5.93 1.522 2.59 2.284 5.408 2.284 8.453 0 3.045-.762 5.863-2.284 8.454-1.442 2.51-3.419 4.487-5.93 5.929-2.59 1.522-5.408 2.284-8.453 2.284-3.045 0-5.863-.762-8.454-2.284-2.51-1.469-4.487-3.459-5.929-5.97C1.095 22.823.333 20.018.333 17c0-3.018.762-5.823 2.284-8.413 1.469-2.511 3.459-4.501 5.97-5.97C11.177 1.095 13.982.333 17 .333zm-3.365 24.159V9.468L23.65 17l-10.016 7.492z"/>
    </defs>
    <g fill="none" fill-rule="evenodd" transform="translate(3 3)">
        <mask id="prefix__b" fill="#fff">
            <use xlink:href="#prefix__a"/>
        </mask>
        <use fill="#000" fill-rule="nonzero" xlink:href="#prefix__a"/>
        <g fill="#FFF" mask="url(#prefix__b)">
            <path d="M0 0H40V40H0z" transform="translate(-3 -3)"/>
        </g>
    </g>
</svg>
