{
    "name": "Aligned Video",
    "group": "commerce_assets",
    "attribute_definition_groups": [
      {
        "id": "body",
        "attribute_definitions": [
          {
            "id": "embedId",
            "name": "Video Embed ID",
            "type": "string",
            "required": true
          },
          {
            "id": "videoImage",
            "name": "Thumbnail Image",
            "type": "image",
            "required": true
          }
        ]
      }
    ],
    "region_definitions": []
}
