{
  "name": "Banner with text on side",
  "description": "Banner with text on side",
  "group": "commerce_assets",
  "attribute_definition_groups": [
    {
      "id": "Image",
      "attribute_definitions": [
        {
          "id": "link",
          "name": "Banner link",
          "type": "url",
          "required": false
        },
        {
          "id": "title",
          "name": "Banner title",
          "type": "string",
          "required": false
        },
        {
          "id": "caption",
          "name": "Banner caption",
          "type": "string",
          "required": false
        },
        {
          "id": "image",
          "name": "Image",
          "type": "image",
          "required": true
        },
        {
          "id": "imageMobile",
          "name": "Image for Mobile view",
          "type": "image",
          "required": false
        },
        {
          "id": "alt",
          "name": "Alt Text for Image",
          "description": "The image alt text shown by the component",
          "type": "string",
          "required": false
        },
        {
          "id": "textOnRightSide",
          "name": "Text on right side",
          "type": "boolean",
          "required": false
        },
        {
          "id": "wrapIntoContainer",
          "name": "Wrap into container",
          "type": "boolean",
          "required": false
        },
        {
            "id": "cssClass",
            "name": "Custom CSS Class for banner container",
            "type": "string",
            "required": false
        }
      ]
    }
  ],
  "region_definitions": []
}
