{
    "name": "Brand Layout",
    "group": "commerce_layouts",
    "attribute_definition_groups": [
      {
        "id": "heading",
        "attribute_definitions": [
          {
            "id": "header",
            "name": "Header",
            "description": "Page header",
            "type": "string",
            "required": false
          },
          {
            "id": "image",
            "name": "Image",
            "type": "image",
            "required": false
          },
          {
            "id": "showBacktoTop",
            "name": "Show Back to Top Button",
            "type": "boolean",
            "required": false,
            "default_value":false
          }
        ]
      }
    ],
    "region_definitions": [
      {
        "id":"brandContent",
        "name":"Brand Contents",
        "component_type_exclusions": [
        ]
      }
    ]
  }
  