<svg xmlns="http://www.w3.org/2000/svg" width="12" height="16" viewBox="0 0 12 16">
    <g fill="none" fill-rule="evenodd" transform="translate(.292 .692)">
        <path fill="#191919" d="M5.5 0c1.823 0 3.3 1.53 3.3 3.417v2.278H11v9.113H0V5.695h2.2V3.417l.005-.187C2.299 1.43 3.738 0 5.5 0zm0 1.14c-1.215 0-2.2 1.019-2.2 2.277v2.278h4.4V3.417c0-1.258-.985-2.278-2.2-2.278z"/>
        <path stroke="#FFF" stroke-linecap="round" d="M5.5 9.682L5.5 11.933"/>
        <rect width="2.2" height="2.278" x="4.4" y="7.973" fill="#FFF" rx="1.1"/>
    </g>
</svg>
