<?xml version="1.0" encoding="UTF-8"?>
<svg width="20px" height="20px" viewBox="0 0 20 20" version="1.1" xmlns="http://www.w3.org/2000/svg" xmlns:xlink="http://www.w3.org/1999/xlink">
    <!-- Generator: sketchtool 51.2 (57519) - http://www.bohemiancoding.com/sketch -->
    <title>A08E1CB0-D3A9-4D63-8201-311BA102C2C3-1135-000044E4FF382B1A</title>
    <desc>Created with sketchtool.</desc>
    <defs></defs>
    <g id="user-usage" class="sprite-symbol-usage">
		<svg viewBox="0 0 20 20" id="user">
			<path d="M15 17c0-3.31-2.24-6-5-6s-5 2.69-5 6H4a7 7 0 0 1 3.93-6.57 4 4 0 1 1 4.13 0A7 7 0 0 1 16 17h-1zm-5-7a3 3 0 1 0 0-6 3 3 0 0 0 0 6z"></path>
		</svg>
	</g>
</svg>