{
    "name": "Footer Newsletter Component",
    "description": "This is subscribe component which is newsletter form of the homepage.",
    "group": "commerce_assets",
    "attribute_definition_groups": [
        {
            "id": "conciergeToolLinkBlock",
            "name": "Concierge Tool Link Block",
            "description": "Concierge Tool Link Block with image, title and text.",
            "attribute_definitions": [
                {
                    "id": "conciergeToolImageDesktop",
                    "name": "Image Desktop",
                    "description": "Select the image for concierge tool link on desktop",
                    "type": "image",
                    "required": false
                },
                {
                    "id": "conciergeToolImageTablet",
                    "name": "Image Tablet",
                    "description": "Select the image for concierge tool link on tablet",
                    "type": "image",
                    "required": false
                },
                {
                    "id": "conciergeToolImageMobile",
                    "name": "Image Mobile",
                    "description": "Select the image for concierge tool link on mobile",
                    "type": "image",
                    "required": false
                },
                {
                    "id": "conciergeToolTitle",
                    "name": "Title",
                    "description": "Concierge tool link block title.",
                    "type": "string",
                    "required": false
                },
                {
                    "id": "conciergeToolText",
                    "name": "Text",
                    "description": "Concierge tool link block text.",
                    "type": "string",
                    "required": false
                },
                {
                   "id": "conciergeToolLink",
                   "name": "conciergeToolLink",
                   "description": "Concierge tool url.",
                   "type" : "url",
                   "required": false
                },
                {
                    "id": "conciergeToolImageAlt",
                    "name": "Image Alt Text",
                    "description": "Concierge tool alt text of image",
                    "type": "string",
                    "required": false
                }
            ]
        },
        {
            "id": "backgroundImageConfiguration",
            "name": "Background Image Configuration (Full width newsletter image)",
            "description": "Select the image to be displayed in the background for form.",
            "attribute_definitions": [
                {
                    "id": "fullWidthNewsletter",
                    "name": "Full Width Newsletter",
                    "description": "The full width newsletter control",
                    "type": "boolean",
                    "required": false
                },
                {
                    "id": "imageDesktop",
                    "name": "Desktop Image",
                    "description": "Select an image to be displayed on the background for from on desktop",
                    "type": "image",
                    "required": false
                },
                {
                    "id": "imageTablet",
                    "name": "Tablet Image",
                    "description": "Select an image to be displayed on the background for from on tablet",
                    "type": "image",
                    "required": false
                },
                {
                    "id": "imageMobile",
                    "name": "Mobile Image",
                    "description": "Select an image to be displayed on the background for from on mobile",
                    "type": "image",
                    "required": false
                }
            ]
        },
        {
            "id": "submitFormConfiguration",
            "name": "Submit Form Configuration",
            "description": "Title ,subtitle..etc to be displayed on the form.",
            "attribute_definitions": [
                {
                    "id": "title",
                    "name": "Title",
                    "description": "The submit form title shown by the component.",
                    "type": "string",
                    "required": false
                },
                {
                    "id": "subTitle",
                    "name": "SubTitle",
                    "description": "The submit form subtitle shown by the component.",
                    "type": "string",
                    "required": false
                },
                {
                    "id": "label",
                    "name": "Label",
                    "description": "The label is on the input shown by the component.",
                    "type": "string",
                    "required": false
                },
                {
                    "id": "buttonDisplayName",
                    "name": "Button Display Name",
                    "description": "The display name is on the button shown by the component.",
                    "type": "string",
                    "required": false
                }
            ]
        },
        {
            "id": "popupFormImageConfiguration",
            "name": "Pop Up Form Image Configuration",
            "description": "Select the image to be displayed in the form which is popup.",
            "attribute_definitions": [
                {
                    "id": "formImage",
                    "name": "Image Form",
                    "description": "Select an image to be displayed in the form which is popup",
                    "type": "image",
                    "required": false
                },
                {
                    "id": "formImageAltText",
                    "name": "Alt Text",
                    "description": "Enter a alt text for image",
                    "type": "string",
                    "required": false
                },
                {
                    "id": "formButtonDisplayName",
                    "name": "Form Button Display Name",
                    "description": "The display name is on the button shown by the pop up form.",
                    "type": "string",
                    "required": false
                }
            ]
        }
    ],
    "region_definitions": []
}
