{
    "name": "Instagram Feed",
    "description": "This is instagram feed section on the homepage.",
    "group": "commerce_assets",
    "attribute_definition_groups": [
        {
            "id": "contentConfiguration",
            "name": "Configuration",
            "description": "Select the image and enter a title to be displayed in the background.",
            "attribute_definitions": [
                {
                    "id": "accountId",
                    "name": "AccountId",
                    "description": "Instagram accountId for example makeupforevermea",
                    "type": "string",
                    "required": true
                },
                {
                    "id": "title",
                    "name": "Title",
                    "description": "Enter a title to be displayed on the page",
                    "type": "string",
                    "required": false
                },
                {
                    "id": "buttonTitle",
                    "name": "Button Title",
                    "description": "Enter a button title to be displayed on the button",
                    "type": "string",
                    "required": true
                }
            ]
        }
    ],
    "region_definitions": []
}
