{
    "columns": [{
        "layout": {
          "attribute": "customer_name"
        }
      },
      {
        "label": "Phone",
        "layout": {
          "xpath": "/shipments[1]/shipping_address/phone"
        }
      },
      {
        "label": "Order Date",
        "layout": {
          "attribute": "creation_date"
        }
      },
      {
        "label": "Payment Method",
        "layout": {
          "xpath": "replace(trim(concat(/payment_instruments[1]/payment_method_id, '\n', /payment_instruments[2]/payment_method_id, '\n', /payment_instruments[3]/payment_method_id)), '\n', ', ')",
          "meta": {
            "type": "string"
          }
        }
      },
      {
        "label": "Shipping Address",
        "layout": {
          "layout": [{
              "xpath": "replace(replace(trim(concat(shipments[1]/shipping_address/address1, '\n', shipments[1]/shipping_address/address2, '<br>')), '\n', '<br>'), '<br><br>', '<br>')",
              "meta": {
                "type": "string",
                "format": "html"
              }
            },
            {
              "xpath": "concat(shipments[1]/shipping_address/city, '<br>')",
              "suppress_new_column": true,
              "meta": {
                "type": "string",
                "format": "html"
              }
            },
            {
              "xpath": "replace(trim(concat(shipments[1]/shipping_address/state_code, '\n', shipments[1]/shipping_address/country_code)), '\n', ', ')",
              "suppress_new_column": true
            }
          ]
        }
      },
      {
        "label": "Order Status",
        "layout": {
          "attribute": "status"
        }
      },
      {
        "label": "Confirmation Status",
        "layout": {
          "attribute": "confirmation_status"
        }
      },
      {
        "label": "Export Status",
        "layout": {
          "attribute": "export_status"
        }
      },
      {
        "label": "Shipping Status",
        "layout": {
          "attribute": "shipping_status"
        }
      },
      {
        "label": "Tracking Number",
        "layout": {
          "xpath": "/shipments[1]/tracking_number"
        }
      },
      {
        "label": "Shipping Method",
        "layout": {
          "xpath": "/shipments[1]/shipping_method/id"
        }
      }
    ]
  }
