{
    "name": "Lazy Load Carousel",
    "description": "Carousel with lazy load",
    "group": "commerce_assets",
    "attribute_definition_groups": [
      {
        "id": "Settings",
        "attribute_definitions": [
          {
            "id": "pids",
            "name": "Enter products ids seperated by comma",
            "type": "string",
            "required": false
          },
          {
              "id": "header",
              "name": "Header",
              "description": "Header to be displayed",
              "type": "string",
              "required": false
          },
          {
            "id": "fullWidthFromTablet",
            "name": "Full Width From Tablet",
            "type": "boolean",
            "required": false
          },
          {
            "id": "jsonConfig",
            "name": "Config",
            "type": "custom",
            "required": true
          }
        ]
      }
    ],
    "region_definitions": []
  }
  