{
    "name": "Slider FullRow",
    "description": "This is row slider component.",
    "group": "commerce_assets",
    "attribute_definition_groups": [
        {
            "id": "imageConfiguration",
            "name": "Image Configuration",
            "description": "Select the image to be displayed in the component.",
            "attribute_definitions": [
                {
                    "id": "image",
                    "name": "Image",
                    "description": "Select an image to be displayed on the page",
                    "type": "image",
                    "required": true
                },
                {
                    "id": "mobileImage",
                    "name": "Image",
                    "description": "Select an image to be displayed on the page",
                    "type": "image",
                    "required": true
                },
                {
                  "id": "alt",
                  "name": "Alt Text",
                  "description": "The image alt text",
                  "type": "string",
                  "required": false
                }
            ]
        },
        {
            "id": "bodyConfiguration",
            "name": "Media Body Configuration",
            "description": "Configure body of attributes to be displayed by the image.",
            "attribute_definitions": [
                {
                    "id": "header",
                    "name": "Header",
                    "description": "Enter the header to be displayed on the component",
                    "type": "string",
                    "required": false
                },
                {
                    "id": "subTitle",
                    "name": "SubTitle",
                    "description": "Enter the subtitle to be displayed on the component",
                    "type": "string",
                    "required": false
                },
                {
                    "id": "description",
                    "name": "Description",
                    "description": "Enter the description to be displayed on the component",
                    "type": "string",
                    "required": false
                },
                {
                    "id": "link",
                    "name": "Link",
                    "description": "Enter the link to be displayed on the component",
                    "type": "string",
                    "required": false
                },
                {
                    "id": "URL",
                    "name": "Link-URL",
                    "description": "Enter the url for when the link is clicked, to redirected page or can select category",
                    "type": "string",
                    "required": false
                },
                {
                    "id": "category",
                    "name": "Category",
                    "description": "Select Category to be displayed or can enter a URL.",
                    "type": "category",
                    "required": false
                }
            ]
        }
    ],
    "region_definitions": [
        {
            "id":"extraContent",
            "name":"Extra Content",
            "component_type_exclusions": [
                { "type_id": "commerce_assets.accordion" },
                { "type_id": "commerce_assets.campaignBanner" },
                { "type_id": "commerce_assets.category" },
                { "type_id": "commerce_assets.categoryTile" },
                { "type_id": "commerce_assets.countdown" },
                { "type_id": "commerce_assets.editorialRichText" },
                { "type_id": "commerce_assets.imageAndText" },
                { "type_id": "commerce_assets.mainBanner" },
                { "type_id": "commerce_assets.navbarItem" },
                { "type_id": "commerce_assets.photoTile" },
                { "type_id": "commerce_assets.popularCategory" },
                { "type_id": "commerce_assets.productTile" },
                { "type_id": "commerce_assets.shopTheLook" },
                { "type_id": "commerce_assets.sliderBanner"},
                { "type_id": "commerce_assets.sliderFullRow"},
                { "type_id": "commerce_assets.sliderHalfRow"},
                { "type_id": "commerce_layouts.carousel" },
                { "type_id": "commerce_layouts.exploreByCategory" },
                { "type_id": "commerce_layouts.fav" },
                { "type_id": "commerce_layouts.links" },
                { "type_id": "commerce_layouts.mobileGrid1r1c" },
                { "type_id": "commerce_layouts.mobileGrid2r1c" },
                { "type_id": "commerce_layouts.mobileGrid2r2c" },
                { "type_id": "commerce_layouts.mobileGrid2r3c" },
                { "type_id": "commerce_layouts.mobileGrid3r1c" },
                { "type_id": "commerce_layouts.mobileGrid3r2c" },
                { "type_id": "commerce_layouts.mobileGridLookBook" },
                { "type_id": "commerce_layouts.mobileGridStatic" },
                { "type_id": "commerce_layouts.popularCategories" },
                { "type_id": "einstein.einsteinCarousel" },
                { "type_id": "einstein.einsteinCarouselCategory" },
                { "type_id": "einstein.einsteinCarouselProduct" }
            ]
        }
    ]
}
