{
    "options": {
        "carouselOptions": {
            "slidesToShow": 6,
            "slidesToScroll": 6,
            "rows": 1,
            "infinite": false,
            "dots": false,
            "arrows": true
        },
        "carouselOptionsTablet": {
            "slidesToShow": 6,
            "slidesToScroll": 6,
            "rows": 1,
            "infinite": false,
            "dots": false,
            "arrows": true
        },
        "carouselOptionsMobile": {
            "slidesToShow": 6,
            "slidesToScroll": 6,
            "rows": 1,
            "infinite": false,
            "dots": false,
            "arrows": true
        }
    }
}
