{
    "name": "Module Navbar",
    "description": "This is navbar of modules.",
    "group": "commerce_layouts",
    "attribute_definition_groups": [
        {
            "id": "navConfiguration",
            "name": "Navbar Configuration",
            "description": "Navbar & tab Configuration.",
            "attribute_definitions": [
                {
                    "id": "preheader",
                    "name": "Preheader",
                    "description": "Enter the preheader to be displayed on the component",
                    "type": "string",
                    "required": false
                },
                {
                    "id": "header",
                    "name": "Header",
                    "description": "Enter the header to be displayed on the nav",
                    "type": "string",
                    "required": false
                },
                {
                    "id": "bgColor",
                    "name": "Background Color",
                    "description": "Enter a hex color to be displayed as a background color. Default value is \"white\".",
                    "type": "string",
                    "default_value": "white",
                    "required": false
                },
                {
                    "id": "tabHeader",
                    "name": "Tab Titles",
                    "description": "Enter the titles to be displayed on tab panel",
                    "type": "custom",
                    "required": false
                },
                {
                    "id": "visibility",
                    "name": "Visibility",
                    "description": "Visibility of links component with respect to screen size. Default value is \"visible\".",
                    "type": "enum",
                    "values": [
                        "visible",
                        "visible-up-sm",
                        "visible-up-md",
                        "visible-up-lg",
                        "visible-up-xl",
                        "visible-down-xs",
                        "visible-down-sm",
                        "visible-down-md",
                        "visible-down-lg",
                        "hidden"
                    ],
                    "default_value": "visible",
                    "required": false
                }
            ]
        }
    ],
    "region_definitions": [
    {
        "id":"navItems",
        "name":"Nav Items",
        "component_type_exclusions": [
        { "type_id": "commerce_layouts.carousel" },
        { "type_id": "commerce_layouts.mobileGrid2r3c" },
        { "type_id": "commerce_layouts.mobileGrid3r2c" },
        { "type_id": "commerce_layouts.einsteinCarousel" },
        { "type_id": "commerce_layouts.einsteinCarouselCategory" },
        { "type_id": "commerce_layouts.einsteinCarouselProduct" },
        { "type_id": "commerce_layouts.mobileGridLookBook" }
        ]
    }
    ]
}
