{
    "name": "MobileApp",
    "group": "commerce_layouts",
    "attribute_definition_groups": [
      {
        "id": "bodyConfiguration",
        "name": "Configuration",
        "description": "Configuration main content",
        "attribute_definitions": [
            {
                "id": "title",
                "name": "Title",
                "type": "string",
                "required": false
            },
            {
                "id": "description",
                "name": "Description",
                "type": "markup",
                "required": false
            },
            {
                "id": "image1",
                "name": "Left Image",
                "description": "image for all devices",
                "type": "image",
                "required": true
            },
            {
                "id": "image2",
                "name": "Right Image",
                "description": "image for desktop only",
                "type": "image",
                "required": true
            },
            {
                "id": "image3",
                "name": "App Store image",
                "type": "image",
                "required": true
            },
            {
                "id": "image4",
                "name": "Android Market image",
                "type": "image",
                "required": true
            },
            {
                "id": "link3",
                "name": "URL for the Android widget",
                "type": "url",
                "required": true
            },
            {
                "id": "link4",
                "name": "URL for the iPhone widget",
                "type": "url",
                "required": true
            },
            {
                "id": "linkTtext",
                "name": "Show all categories link text",
                "type": "string",
                "required": true
            },
            {
                "id": "link",
                "name": "Show all categories link URL",
                "type": "url",
                "required": true
            }
        ]
      }
    ],
    "region_definitions": []
  }
